#      x         #      y         #    xerrn       #    xerrp       #    yerrn       #    yerrp       
#--------------  #--------------  #--------------  #--------------  #--------------  #--------------  
       1.925312        9.400000        1.900056        1.950569        9.176239        9.623760  
       1.778151        9.080000        1.741985        1.814318        8.856239        9.303761  
       1.869232        9.330000        1.851637        1.886826        8.989734        9.670266  
       1.897627        9.000000        1.881146        1.914108        8.547203        9.452797  
       1.892095        8.960000        1.875402        1.908787        8.736239        9.183761  
       1.763428        8.600000        1.740980        1.785876        8.146717        9.053284  
       1.806180        9.130000        1.772274        1.840086        8.656922        9.603078  
       1.301030        7.410000        1.040630        1.561430        7.184922        7.635077  
       1.732394        8.730000        1.716320        1.748468        8.504922        8.955077  
       1.230449        6.610000        1.128331        1.332567        6.384923        6.835078  
       2.045323        9.760000        2.025773        2.064873        9.520006        9.999994  
       1.919078        9.020000        1.877247        1.960909        8.740347        9.299654  
       2.071882        9.940000        2.057170        2.086594        9.690474        10.18953  
       2.093422        9.760000        2.075922        2.110922        9.509192        10.01081  
       1.919078        9.420000        1.892933        1.945223        9.164471        9.675529  
       1.832509        9.320000        1.800597        1.864421        9.096239        9.543760  
       1.886491        9.260000        1.880854        1.892127        9.034923        9.485078  
       2.127105        9.930000        2.123866        2.130344        9.706240        10.15376  
       1.924279        8.740000        1.872613        1.975946        8.514922        8.965077  
       1.819544        8.690000        1.799817        1.839271        8.464922        8.915077  
       2.173186        10.45000        2.170274        2.176099        10.22624        10.67376  
       1.643453        8.360000        1.613862        1.673044        8.134922        8.585077  
       1.954242        9.370000        1.944598        1.963887        8.905584        9.834415  
       2.033424        9.880000        2.025387        2.041461        9.652371        10.10763  
       1.579784        7.810000        1.522678        1.636889        7.584922        8.035078  
#      x         #      y         #    xerrn       #    xerrp       #    yerrn       #    yerrp       
#--------------  #--------------  #--------------  #--------------  #--------------  #--------------  
       2.474216        11.55388        2.472760        2.475672        11.25388        11.85388  
       2.457882        11.53148        2.451833        2.463931        11.23148        11.83148  
       2.380211        11.34242        2.369361        2.391061        11.04242        11.64242  
       2.383815        11.34044        2.380229        2.387402        11.04044        11.64044  
       2.382017        11.21005        2.374814        2.389220        10.91005        11.51005  
       2.376577        11.15836        2.372930        2.380224        10.85836        11.45836  
       2.348305        10.91222        2.342466        2.354143        10.61222        11.21222  
       2.332438        11.03342        2.328401        2.336476        10.73342        11.33342  
       2.326336        11.05308        2.320194        2.332477        10.75308        11.35308  
       2.334454        11.11059        2.332445        2.336463        10.81059        11.41059  
       2.318063        11.09691        2.313890        2.322236        10.79691        11.39691  
       2.290035        10.98811        2.281132        2.298937        10.68811        11.28811  
       2.245513        10.67761        2.223320        2.267706        10.37761        10.97761  
       2.267172        10.74974        2.264826        2.269518        10.44974        11.04974  
       2.257679        10.76418        2.248087        2.267270        10.46418        11.06418  
       2.250420        10.65321        2.247982        2.252858        10.35321        10.95321  
       2.247973        10.68484        2.230809        2.265137        10.38484        10.98485  
       2.278754        10.85309        2.244490        2.313017        10.55309        11.15309  
       2.230449        10.61172        2.217684        2.243214        10.31172        10.91172  
       2.240549        10.26951        2.218101        2.262998        9.969513        10.56951  
       2.230449        10.54283        2.227896        2.233002        10.24283        10.84283  
       2.204120        10.66464        2.179708        2.228532        10.36464        10.96464  
       2.217484        10.23553        2.191181        2.243787        9.935528        10.53553  
       2.225309        10.51054        2.220143        2.230476        10.21054        10.81054  
       2.204120        10.51720        2.185133        2.223107        10.21720        10.81720  
       2.173186        10.46687        2.170274        2.176099        10.16687        10.76687  
       2.190332        10.55023        2.176332        2.204332        10.25023        10.85023  
       2.170262        10.47857        2.158532        2.181991        10.17857        10.77857  
       2.136721        10.19866        2.133553        2.139889        9.898657        10.49866  
       2.133539        10.05308        2.114392        2.152686        9.753078        10.35308  
       2.127105        10.19590        2.123866        2.130344        9.895900        10.49590  
       2.123852        10.04922        2.114062        2.133641        9.749218        10.34922  
       2.089905        10.05308        2.079320        2.100490        9.753078        10.35308  
       2.093422        10.00000        2.075922        2.110922        9.700000        10.30000  
       2.071882        10.12385        2.053492        2.090272        9.823852        10.42385  
       2.060698        10.02938        2.056924        2.064472        9.729383        10.32938  
       2.079181        9.919078        2.057481        2.100881        9.619078        10.21908  
       2.071882        10.14301        2.057170        2.086594        9.843015        10.44302  
       2.045323        9.968483        2.037503        2.053143        9.668483        10.26848  
       2.045323        9.939519        2.025773        2.064873        9.639519        10.23952  
       2.045323        9.897627        2.041413        2.049233        9.597627        10.19763  
       2.041393        9.447158        1.986156        2.096629        9.147158        9.747158  
       2.045323        9.869232        2.025773        2.064873        9.569232        10.16923  
       2.033424        9.863323        2.029405        2.037442        9.563323        10.16332  
       2.029384        9.785330        2.025328        2.033440        9.485330        10.08533  
       2.033424        9.934499        2.025387        2.041461        9.634499        10.23450  
       2.025306        9.724276        2.017117        2.033494        9.424275        10.02428  
       1.977724        9.707570        1.932039        2.023408        9.407570        10.00757  
       2.113943        10.06070        2.103928        2.123959        9.760697        10.36070  
       1.973128        9.544068        1.963894        1.982362        9.244068        9.844069  
       1.924279        9.544068        1.872613        1.975946        9.244068        9.844069  
       1.939519        9.447158        1.924554        1.954485        9.147158        9.747158  
       1.929419        9.518514        1.914101        1.944737        9.218513        9.818514  
       1.944483        9.431364        1.929687        1.959278        9.131364        9.731364  
       1.908485        9.380211        1.881695        1.935275        9.080211        9.680211  
       2.029384        9.662758        1.992879        2.065888        9.362758        9.962758  
       1.681241        8.190331        1.645075        1.717408        7.890331        8.490332  
#      x         #      y         #    xerrn       #    xerrp       #    yerrn       #    yerrp       
#--------------  #--------------  #--------------  #--------------  #--------------  #--------------  
       1.058105        5.494154       0.9799227        1.136286        5.144725        5.843584  
       1.197602        5.545307        1.140899        1.254305        5.238618        5.851996  
       1.306746        7.260071        1.273670        1.339823        6.935889        7.584253  
       1.202348        6.645422        1.136914        1.267783        6.314736        6.976109  
       1.058105        5.884795        1.012498        1.103711        5.557366        6.212224  
       1.202348        6.260071        1.150935        1.253762        5.907990        6.612153  
       1.136188        5.726727        1.065428        1.206947        5.366577        6.086877  
       1.216284        5.414973        1.161968        1.270600        5.057983        5.771964  
       1.051474        4.591064       0.9191663        1.183782        4.278981        4.903148  
       1.259750        3.113943       0.9567022        1.562798        2.657505        3.570382  
       1.119374        5.475671        1.096743        1.142006        5.170474        5.780869  
      0.9013184        4.011570       0.8078402       0.9947967        3.653246        4.369895  
      0.9013184        3.682145       0.8265358       0.9761010        3.322934        4.041357  
      0.8067623        4.670246       0.7021677       0.9113569        4.342735        4.997756  
      0.7570746        4.053463       0.5355594       0.9785898        3.677044        4.429881  
      0.6187719        3.767156       0.2783552       0.9591885        3.377637        4.156674  
       1.113622        4.884795        1.021889        1.205355        4.557366        5.212224  
      0.8720291        2.632457       0.7520291       0.9920291        2.226407        3.038507  
      0.7700396        3.043362       0.5423925       0.9976866        2.731279        3.355446  
       1.314108        4.260071        1.187637        1.440578        3.935889        4.584253  
      0.9944355        3.716003       0.8888215        1.100049        3.353074        4.078933  
      0.8720291        3.113943       0.6920291        1.052029        2.688972        3.538915  
       1.071070        5.369216       0.9129814        1.229158        5.054366        5.684066  
       1.279953        5.965202        1.045408        1.514499        5.653450        6.276954  
       1.469010        6.561101        1.418421        1.519598        6.230794        6.891409  
       1.295465        7.344392        1.269062        1.321869        7.034944        7.653841  
       1.437218        5.862132        1.339243        1.535192        5.537950        6.186314  
#      x         #      y         #    xerrn       #    xerrp       #    yerrn       #    yerrp       
#--------------  #--------------  #--------------  #--------------  #--------------  #--------------  
       1.833147        9.103342        1.791170        1.875124        8.963528        9.243156  
       1.657056        8.044147        1.601080        1.713032        7.486351        8.601943  
       1.574031        8.211788        1.499039        1.649023        7.840803        8.582774  
       1.463893        7.503109        1.392359        1.535427        7.288447        7.717772  
       1.770852        8.710371        1.719835        1.821869        8.568461        8.852281  
       1.723456        8.341237        1.683187        1.763724        8.188758        8.493716  
#      x         #      y         #    xerrn       #    xerrp       #    yerrn       #    yerrp       
#--------------  #--------------  #--------------  #--------------  #--------------  #--------------  
       2.711473        12.45576        2.661473        2.761473        12.44691        12.46461  
       2.839924        12.76065        2.789924        2.889924        12.75875        12.76255  
       2.963794        13.14364        2.913794        3.013794        13.14179        13.14549  
       3.096441        13.57054        3.046441        3.146441        13.56742        13.57366  
       3.221153        14.00048        3.171153        3.271153        13.99834        14.00261  
