%!PS-Adobe-3.0 EPSF-3.0
%%Title: ../figures/leop_spectra.eps
%%Creator: matplotlib version 1.3.1, http://matplotlib.org/
%%CreationDate: Tue Jun 10 09:45:54 2014
%%Orientation: portrait
%%BoundingBox: 27 120 584 671
%%EndComments
%%BeginProlog
/mpldict 8 dict def
mpldict begin
/m { moveto } bind def
/l { lineto } bind def
/r { rlineto } bind def
/c { curveto } bind def
/cl { closepath } bind def
/box {
m
1 index 0 r
0 exch r
neg 0 r
cl
} bind def
/clipbox {
box
clip
newpath
} bind def
%!PS-Adobe-3.0 Resource-Font
%%Title: Bitstream Vera Sans
%%Copyright: Copyright (c) 2003 by Bitstream, Inc. All Rights Reserved.
%%Creator: Converted from TrueType to type 3 by PPR
25 dict begin
/_d{bind def}bind def
/_m{moveto}_d
/_l{lineto}_d
/_cl{closepath eofill}_d
/_c{curveto}_d
/_sc{7 -1 roll{setcachedevice}{pop pop pop pop pop pop}ifelse}_d
/_e{exec}_d
/FontName /BitstreamVeraSans-Roman def
/PaintType 0 def
/FontMatrix[.001 0 0 .001 0 0]def
/FontBBox[-183 -236 1287 928]def
/FontType 3 def
/Encoding [ /space /quotesingle /parenleft /parenright /plus /comma /slash /zero /one /two /three /four /five /six /seven /eight /nine /A /B /D /F /G /J /L /M /R /S /T /V /W /a /b /c /e /i /k /l /m /n /o /s /t /u /x /y /minus ] def
/FontInfo 10 dict dup begin
/FamilyName (Bitstream Vera Sans) def
/FullName (Bitstream Vera Sans) def
/Notice (Copyright (c) 2003 by Bitstream, Inc. All Rights Reserved. Bitstream Vera is a trademark of Bitstream, Inc.) def
/Weight (Roman) def
/Version (Release 1.10) def
/ItalicAngle 0.0 def
/isFixedPitch false def
/UnderlinePosition -213 def
/UnderlineThickness 143 def
end readonly def
/CharStrings 46 dict dup begin
/space{318 0 0 0 0 0 _sc
}_d
/quotesingle{275 0 96 458 179 729 _sc
179 729 _m
179 458 _l
96 458 _l
96 729 _l
179 729 _l
_cl}_d
/parenleft{390 0 86 -131 310 759 _sc
310 759 _m
266 683 234 609 213 536 _c
191 463 181 389 181 314 _c
181 238 191 164 213 91 _c
234 17 266 -56 310 -131 _c
232 -131 _l
183 -54 146 20 122 94 _c
98 168 86 241 86 314 _c
86 386 98 459 122 533 _c
146 607 182 682 232 759 _c
310 759 _l
_cl}_d
/parenright{390 0 80 -131 304 759 _sc
80 759 _m
158 759 _l
206 682 243 607 267 533 _c
291 459 304 386 304 314 _c
304 241 291 168 267 94 _c
243 20 206 -54 158 -131 _c
80 -131 _l
123 -56 155 17 177 91 _c
198 164 209 238 209 314 _c
209 389 198 463 177 536 _c
155 609 123 683 80 759 _c
_cl}_d
/plus{838 0 106 0 732 627 _sc
460 627 _m
460 355 _l
732 355 _l
732 272 _l
460 272 _l
460 0 _l
378 0 _l
378 272 _l
106 272 _l
106 355 _l
378 355 _l
378 627 _l
460 627 _l
_cl}_d
/comma{318 0 77 -115 220 124 _sc
117 124 _m
220 124 _l
220 40 _l
140 -115 _l
77 -115 _l
117 40 _l
117 124 _l
_cl}_d
/slash{337 0 0 -92 337 729 _sc
254 729 _m
337 729 _l
83 -92 _l
0 -92 _l
254 729 _l
_cl}_d
/zero{636 0 66 -13 570 742 _sc
318 664 _m
267 664 229 639 203 589 _c
177 539 165 464 165 364 _c
165 264 177 189 203 139 _c
229 89 267 64 318 64 _c
369 64 407 89 433 139 _c
458 189 471 264 471 364 _c
471 464 458 539 433 589 _c
407 639 369 664 318 664 _c
318 742 _m
399 742 461 709 505 645 _c
548 580 570 486 570 364 _c
570 241 548 147 505 83 _c
461 19 399 -13 318 -13 _c
236 -13 173 19 130 83 _c
87 147 66 241 66 364 _c
66 486 87 580 130 645 _c
173 709 236 742 318 742 _c
_cl}_d
/one{636 0 110 0 544 729 _sc
124 83 _m
285 83 _l
285 639 _l
110 604 _l
110 694 _l
284 729 _l
383 729 _l
383 83 _l
544 83 _l
544 0 _l
124 0 _l
124 83 _l
_cl}_d
/two{{636 0 73 0 536 742 _sc
192 83 _m
536 83 _l
536 0 _l
73 0 _l
73 83 _l
110 121 161 173 226 239 _c
290 304 331 346 348 365 _c
380 400 402 430 414 455 _c
426 479 433 504 433 528 _c
433 566 419 598 392 622 _c
365 646 330 659 286 659 _c
255 659 222 653 188 643 _c
154 632 117 616 78 594 _c
78 694 _l
118 710 155 722 189 730 _c
223 738 255 742 284 742 _c
}_e{359 742 419 723 464 685 _c
509 647 532 597 532 534 _c
532 504 526 475 515 449 _c
504 422 484 390 454 354 _c
446 344 420 317 376 272 _c
332 227 271 164 192 83 _c
_cl}_e}_d
/three{{636 0 76 -13 556 742 _sc
406 393 _m
453 383 490 362 516 330 _c
542 298 556 258 556 212 _c
556 140 531 84 482 45 _c
432 6 362 -13 271 -13 _c
240 -13 208 -10 176 -4 _c
144 1 110 10 76 22 _c
76 117 _l
103 101 133 89 166 81 _c
198 73 232 69 268 69 _c
330 69 377 81 409 105 _c
441 129 458 165 458 212 _c
458 254 443 288 413 312 _c
383 336 341 349 287 349 _c
}_e{202 349 _l
202 430 _l
291 430 _l
339 430 376 439 402 459 _c
428 478 441 506 441 543 _c
441 580 427 609 401 629 _c
374 649 336 659 287 659 _c
260 659 231 656 200 650 _c
169 644 135 635 98 623 _c
98 711 _l
135 721 170 729 203 734 _c
235 739 266 742 296 742 _c
370 742 429 725 473 691 _c
517 657 539 611 539 553 _c
539 513 527 479 504 451 _c
481 423 448 403 406 393 _c
_cl}_e}_d
/four{636 0 49 0 580 729 _sc
378 643 _m
129 254 _l
378 254 _l
378 643 _l
352 729 _m
476 729 _l
476 254 _l
580 254 _l
580 172 _l
476 172 _l
476 0 _l
378 0 _l
378 172 _l
49 172 _l
49 267 _l
352 729 _l
_cl}_d
/five{{636 0 77 -13 549 729 _sc
108 729 _m
495 729 _l
495 646 _l
198 646 _l
198 467 _l
212 472 227 476 241 478 _c
255 480 270 482 284 482 _c
365 482 429 459 477 415 _c
525 370 549 310 549 234 _c
549 155 524 94 475 51 _c
426 8 357 -13 269 -13 _c
238 -13 207 -10 175 -6 _c
143 -1 111 6 77 17 _c
77 116 _l
106 100 136 88 168 80 _c
199 72 232 69 267 69 _c
}_e{323 69 368 83 401 113 _c
433 143 450 183 450 234 _c
450 284 433 324 401 354 _c
368 384 323 399 267 399 _c
241 399 214 396 188 390 _c
162 384 135 375 108 363 _c
108 729 _l
_cl}_e}_d
/six{{636 0 70 -13 573 742 _sc
330 404 _m
286 404 251 388 225 358 _c
199 328 186 286 186 234 _c
186 181 199 139 225 109 _c
251 79 286 64 330 64 _c
374 64 409 79 435 109 _c
461 139 474 181 474 234 _c
474 286 461 328 435 358 _c
409 388 374 404 330 404 _c
526 713 _m
526 623 _l
501 635 476 644 451 650 _c
425 656 400 659 376 659 _c
310 659 260 637 226 593 _c
}_e{192 549 172 482 168 394 _c
187 422 211 444 240 459 _c
269 474 301 482 336 482 _c
409 482 467 459 509 415 _c
551 371 573 310 573 234 _c
573 159 550 99 506 54 _c
462 9 403 -13 330 -13 _c
246 -13 181 19 137 83 _c
92 147 70 241 70 364 _c
70 479 97 571 152 639 _c
206 707 280 742 372 742 _c
396 742 421 739 447 735 _c
472 730 498 723 526 713 _c
_cl}_e}_d
/seven{636 0 82 0 551 729 _sc
82 729 _m
551 729 _l
551 687 _l
286 0 _l
183 0 _l
432 646 _l
82 646 _l
82 729 _l
_cl}_d
/eight{{636 0 68 -13 568 742 _sc
318 346 _m
271 346 234 333 207 308 _c
180 283 167 249 167 205 _c
167 161 180 126 207 101 _c
234 76 271 64 318 64 _c
364 64 401 76 428 102 _c
455 127 469 161 469 205 _c
469 249 455 283 429 308 _c
402 333 365 346 318 346 _c
219 388 _m
177 398 144 418 120 447 _c
96 476 85 511 85 553 _c
85 611 105 657 147 691 _c
188 725 245 742 318 742 _c
}_e{390 742 447 725 489 691 _c
530 657 551 611 551 553 _c
551 511 539 476 515 447 _c
491 418 459 398 417 388 _c
464 377 501 355 528 323 _c
554 291 568 251 568 205 _c
568 134 546 80 503 43 _c
459 5 398 -13 318 -13 _c
237 -13 175 5 132 43 _c
89 80 68 134 68 205 _c
68 251 81 291 108 323 _c
134 355 171 377 219 388 _c
183 544 _m
183 506 194 476 218 455 _c
}_e{242 434 275 424 318 424 _c
360 424 393 434 417 455 _c
441 476 453 506 453 544 _c
453 582 441 611 417 632 _c
393 653 360 664 318 664 _c
275 664 242 653 218 632 _c
194 611 183 582 183 544 _c
_cl}_e}_d
/nine{{636 0 63 -13 566 742 _sc
110 15 _m
110 105 _l
134 93 159 84 185 78 _c
210 72 235 69 260 69 _c
324 69 374 90 408 134 _c
442 178 462 244 468 334 _c
448 306 424 284 396 269 _c
367 254 335 247 300 247 _c
226 247 168 269 126 313 _c
84 357 63 417 63 494 _c
63 568 85 628 129 674 _c
173 719 232 742 306 742 _c
390 742 455 709 499 645 _c
543 580 566 486 566 364 _c
}_e{566 248 538 157 484 89 _c
429 21 356 -13 264 -13 _c
239 -13 214 -10 189 -6 _c
163 -2 137 5 110 15 _c
306 324 _m
350 324 385 339 411 369 _c
437 399 450 441 450 494 _c
450 546 437 588 411 618 _c
385 648 350 664 306 664 _c
262 664 227 648 201 618 _c
175 588 162 546 162 494 _c
162 441 175 399 201 369 _c
227 339 262 324 306 324 _c
_cl}_e}_d
/A{684 0 8 0 676 729 _sc
342 632 _m
208 269 _l
476 269 _l
342 632 _l
286 729 _m
398 729 _l
676 0 _l
573 0 _l
507 187 _l
178 187 _l
112 0 _l
8 0 _l
286 729 _l
_cl}_d
/B{{686 0 98 0 615 729 _sc
197 348 _m
197 81 _l
355 81 _l
408 81 447 92 473 114 _c
498 136 511 169 511 215 _c
511 260 498 293 473 315 _c
447 337 408 348 355 348 _c
197 348 _l
197 648 _m
197 428 _l
343 428 _l
391 428 426 437 450 455 _c
474 473 486 500 486 538 _c
486 574 474 602 450 620 _c
426 638 391 648 343 648 _c
197 648 _l
98 729 _m
350 729 _l
}_e{425 729 483 713 524 682 _c
564 650 585 606 585 549 _c
585 504 574 468 553 442 _c
532 416 502 399 462 393 _c
510 382 548 360 575 327 _c
601 294 615 253 615 204 _c
615 138 592 88 548 53 _c
504 17 441 0 360 0 _c
98 0 _l
98 729 _l
_cl}_e}_d
/D{770 0 98 0 711 729 _sc
197 648 _m
197 81 _l
316 81 _l
416 81 490 103 537 149 _c
583 195 607 267 607 365 _c
607 463 583 534 537 580 _c
490 625 416 648 316 648 _c
197 648 _l
98 729 _m
301 729 _l
442 729 546 699 612 641 _c
678 582 711 490 711 365 _c
711 239 677 147 611 88 _c
545 29 441 0 301 0 _c
98 0 _l
98 729 _l
_cl}_d
/F{575 0 98 0 517 729 _sc
98 729 _m
517 729 _l
517 646 _l
197 646 _l
197 431 _l
486 431 _l
486 348 _l
197 348 _l
197 0 _l
98 0 _l
98 729 _l
_cl}_d
/G{{775 0 56 -13 693 742 _sc
595 104 _m
595 300 _l
434 300 _l
434 381 _l
693 381 _l
693 68 _l
655 40 613 20 567 7 _c
521 -6 472 -13 420 -13 _c
306 -13 216 20 152 86 _c
88 152 56 245 56 364 _c
56 482 88 575 152 642 _c
216 708 306 742 420 742 _c
467 742 512 736 555 724 _c
598 712 638 695 674 673 _c
674 568 _l
637 598 598 621 557 637 _c
516 653 473 661 428 661 _c
}_e{338 661 271 636 227 586 _c
182 536 160 462 160 364 _c
160 265 182 191 227 141 _c
271 91 338 67 428 67 _c
462 67 493 70 521 76 _c
549 82 573 91 595 104 _c
_cl}_e}_d
/J{295 0 -51 -199 197 729 _sc
98 729 _m
197 729 _l
197 51 _l
197 -36 180 -99 147 -139 _c
113 -179 60 -199 -13 -199 _c
-51 -199 _l
-51 -116 _l
-20 -116 _l
22 -116 53 -103 71 -79 _c
89 -55 98 -11 98 51 _c
98 729 _l
_cl}_d
/L{557 0 98 0 552 729 _sc
98 729 _m
197 729 _l
197 83 _l
552 83 _l
552 0 _l
98 0 _l
98 729 _l
_cl}_d
/M{863 0 98 0 765 729 _sc
98 729 _m
245 729 _l
431 233 _l
618 729 _l
765 729 _l
765 0 _l
669 0 _l
669 640 _l
481 140 _l
382 140 _l
194 640 _l
194 0 _l
98 0 _l
98 729 _l
_cl}_d
/R{{695 0 98 0 666 729 _sc
444 342 _m
465 334 486 319 506 296 _c
526 272 546 240 566 199 _c
666 0 _l
560 0 _l
467 187 _l
443 235 419 268 397 284 _c
374 300 343 308 304 308 _c
197 308 _l
197 0 _l
98 0 _l
98 729 _l
321 729 _l
404 729 466 711 507 677 _c
548 642 569 589 569 519 _c
569 473 558 434 537 404 _c
515 374 484 353 444 342 _c
197 648 _m
197 389 _l
321 389 _l
}_e{368 389 404 400 428 422 _c
452 444 465 476 465 519 _c
465 561 452 593 428 615 _c
404 637 368 648 321 648 _c
197 648 _l
_cl}_e}_d
/S{{635 0 66 -13 579 742 _sc
535 705 _m
535 609 _l
497 627 462 640 429 649 _c
395 657 363 662 333 662 _c
279 662 237 651 208 631 _c
179 610 165 580 165 542 _c
165 510 174 485 194 469 _c
213 452 250 439 304 429 _c
364 417 _l
437 403 491 378 526 343 _c
561 307 579 260 579 201 _c
579 130 555 77 508 41 _c
460 5 391 -13 300 -13 _c
265 -13 228 -9 189 -2 _c
}_e{150 5 110 16 69 32 _c
69 134 _l
109 111 148 94 186 83 _c
224 71 262 66 300 66 _c
356 66 399 77 430 99 _c
460 121 476 152 476 194 _c
476 230 465 258 443 278 _c
421 298 385 313 335 323 _c
275 335 _l
201 349 148 372 115 404 _c
82 435 66 478 66 534 _c
66 598 88 649 134 686 _c
179 723 242 742 322 742 _c
356 742 390 739 426 733 _c
461 727 497 717 535 705 _c
}_e{_cl}_e}_d
/T{611 0 -2 0 614 729 _sc
-2 729 _m
614 729 _l
614 646 _l
355 646 _l
355 0 _l
256 0 _l
256 646 _l
-2 646 _l
-2 729 _l
_cl}_d
/V{684 0 8 0 676 729 _sc
286 0 _m
8 729 _l
111 729 _l
342 115 _l
573 729 _l
676 729 _l
398 0 _l
286 0 _l
_cl}_d
/W{989 0 33 0 956 729 _sc
33 729 _m
133 729 _l
286 113 _l
439 729 _l
550 729 _l
703 113 _l
856 729 _l
956 729 _l
773 0 _l
649 0 _l
495 633 _l
340 0 _l
216 0 _l
33 729 _l
_cl}_d
/a{{613 0 60 -13 522 560 _sc
343 275 _m
270 275 220 266 192 250 _c
164 233 150 205 150 165 _c
150 133 160 107 181 89 _c
202 70 231 61 267 61 _c
317 61 357 78 387 114 _c
417 149 432 196 432 255 _c
432 275 _l
343 275 _l
522 312 _m
522 0 _l
432 0 _l
432 83 _l
411 49 385 25 355 10 _c
325 -5 287 -13 243 -13 _c
187 -13 142 2 109 33 _c
76 64 60 106 60 159 _c
}_e{60 220 80 266 122 298 _c
163 329 224 345 306 345 _c
432 345 _l
432 354 _l
432 395 418 427 391 450 _c
364 472 326 484 277 484 _c
245 484 215 480 185 472 _c
155 464 127 453 100 439 _c
100 522 _l
132 534 164 544 195 550 _c
226 556 256 560 286 560 _c
365 560 424 539 463 498 _c
502 457 522 395 522 312 _c
_cl}_e}_d
/b{{635 0 91 -13 580 760 _sc
487 273 _m
487 339 473 390 446 428 _c
418 466 381 485 334 485 _c
286 485 249 466 222 428 _c
194 390 181 339 181 273 _c
181 207 194 155 222 117 _c
249 79 286 61 334 61 _c
381 61 418 79 446 117 _c
473 155 487 207 487 273 _c
181 464 _m
199 496 223 520 252 536 _c
281 552 316 560 356 560 _c
422 560 476 533 518 481 _c
559 428 580 359 580 273 _c
}_e{580 187 559 117 518 65 _c
476 13 422 -13 356 -13 _c
316 -13 281 -5 252 10 _c
223 25 199 49 181 82 _c
181 0 _l
91 0 _l
91 760 _l
181 760 _l
181 464 _l
_cl}_e}_d
/c{{550 0 55 -13 488 560 _sc
488 526 _m
488 442 _l
462 456 437 466 411 473 _c
385 480 360 484 334 484 _c
276 484 230 465 198 428 _c
166 391 150 339 150 273 _c
150 206 166 154 198 117 _c
230 80 276 62 334 62 _c
360 62 385 65 411 72 _c
437 79 462 90 488 104 _c
488 21 _l
462 9 436 0 410 -5 _c
383 -10 354 -13 324 -13 _c
242 -13 176 12 128 64 _c
}_e{79 115 55 185 55 273 _c
55 362 79 432 128 483 _c
177 534 244 560 330 560 _c
358 560 385 557 411 551 _c
437 545 463 537 488 526 _c
_cl}_e}_d
/e{{615 0 55 -13 562 560 _sc
562 296 _m
562 252 _l
149 252 _l
153 190 171 142 205 110 _c
238 78 284 62 344 62 _c
378 62 412 66 444 74 _c
476 82 509 95 541 113 _c
541 28 _l
509 14 476 3 442 -3 _c
408 -9 373 -13 339 -13 _c
251 -13 182 12 131 62 _c
80 112 55 181 55 268 _c
55 357 79 428 127 481 _c
175 533 241 560 323 560 _c
397 560 455 536 498 489 _c
}_e{540 441 562 377 562 296 _c
472 322 _m
471 371 457 410 431 440 _c
404 469 368 484 324 484 _c
274 484 234 469 204 441 _c
174 413 156 373 152 322 _c
472 322 _l
_cl}_e}_d
/i{278 0 94 0 184 760 _sc
94 547 _m
184 547 _l
184 0 _l
94 0 _l
94 547 _l
94 760 _m
184 760 _l
184 646 _l
94 646 _l
94 760 _l
_cl}_d
/k{579 0 91 0 576 760 _sc
91 760 _m
181 760 _l
181 311 _l
449 547 _l
564 547 _l
274 291 _l
576 0 _l
459 0 _l
181 267 _l
181 0 _l
91 0 _l
91 760 _l
_cl}_d
/l{278 0 94 0 184 760 _sc
94 760 _m
184 760 _l
184 0 _l
94 0 _l
94 760 _l
_cl}_d
/m{{974 0 91 0 889 560 _sc
520 442 _m
542 482 569 511 600 531 _c
631 550 668 560 711 560 _c
767 560 811 540 842 500 _c
873 460 889 403 889 330 _c
889 0 _l
799 0 _l
799 327 _l
799 379 789 418 771 444 _c
752 469 724 482 686 482 _c
639 482 602 466 575 435 _c
548 404 535 362 535 309 _c
535 0 _l
445 0 _l
445 327 _l
445 379 435 418 417 444 _c
398 469 369 482 331 482 _c
}_e{285 482 248 466 221 435 _c
194 404 181 362 181 309 _c
181 0 _l
91 0 _l
91 547 _l
181 547 _l
181 462 _l
201 495 226 520 255 536 _c
283 552 317 560 357 560 _c
397 560 430 550 458 530 _c
486 510 506 480 520 442 _c
_cl}_e}_d
/n{634 0 91 0 549 560 _sc
549 330 _m
549 0 _l
459 0 _l
459 327 _l
459 379 448 417 428 443 _c
408 469 378 482 338 482 _c
289 482 251 466 223 435 _c
195 404 181 362 181 309 _c
181 0 _l
91 0 _l
91 547 _l
181 547 _l
181 462 _l
202 494 227 519 257 535 _c
286 551 320 560 358 560 _c
420 560 468 540 500 501 _c
532 462 549 405 549 330 _c
_cl}_d
/o{612 0 55 -13 557 560 _sc
306 484 _m
258 484 220 465 192 427 _c
164 389 150 338 150 273 _c
150 207 163 156 191 118 _c
219 80 257 62 306 62 _c
354 62 392 80 420 118 _c
448 156 462 207 462 273 _c
462 337 448 389 420 427 _c
392 465 354 484 306 484 _c
306 560 _m
384 560 445 534 490 484 _c
534 433 557 363 557 273 _c
557 183 534 113 490 63 _c
445 12 384 -13 306 -13 _c
227 -13 165 12 121 63 _c
77 113 55 183 55 273 _c
55 363 77 433 121 484 _c
165 534 227 560 306 560 _c
_cl}_d
/s{{521 0 54 -13 472 560 _sc
443 531 _m
443 446 _l
417 458 391 468 364 475 _c
336 481 308 485 279 485 _c
234 485 200 478 178 464 _c
156 450 145 430 145 403 _c
145 382 153 366 169 354 _c
185 342 217 330 265 320 _c
296 313 _l
360 299 405 279 432 255 _c
458 230 472 195 472 151 _c
472 100 452 60 412 31 _c
372 1 316 -13 246 -13 _c
216 -13 186 -10 154 -5 _c
}_e{122 0 89 8 54 20 _c
54 113 _l
87 95 120 82 152 74 _c
184 65 216 61 248 61 _c
290 61 323 68 346 82 _c
368 96 380 117 380 144 _c
380 168 371 187 355 200 _c
339 213 303 226 247 238 _c
216 245 _l
160 257 119 275 95 299 _c
70 323 58 356 58 399 _c
58 450 76 490 112 518 _c
148 546 200 560 268 560 _c
301 560 332 557 362 552 _c
391 547 418 540 443 531 _c
}_e{_cl}_e}_d
/t{392 0 27 0 368 702 _sc
183 702 _m
183 547 _l
368 547 _l
368 477 _l
183 477 _l
183 180 _l
183 135 189 106 201 94 _c
213 81 238 75 276 75 _c
368 75 _l
368 0 _l
276 0 _l
206 0 158 13 132 39 _c
106 65 93 112 93 180 _c
93 477 _l
27 477 _l
27 547 _l
93 547 _l
93 702 _l
183 702 _l
_cl}_d
/u{634 0 85 -13 543 547 _sc
85 216 _m
85 547 _l
175 547 _l
175 219 _l
175 167 185 129 205 103 _c
225 77 255 64 296 64 _c
344 64 383 79 411 110 _c
439 141 453 183 453 237 _c
453 547 _l
543 547 _l
543 0 _l
453 0 _l
453 84 _l
431 50 405 26 377 10 _c
348 -5 315 -13 277 -13 _c
214 -13 166 6 134 45 _c
101 83 85 140 85 216 _c
_cl}_d
/x{592 0 29 0 559 547 _sc
549 547 _m
351 281 _l
559 0 _l
453 0 _l
294 215 _l
135 0 _l
29 0 _l
241 286 _l
47 547 _l
153 547 _l
298 352 _l
443 547 _l
549 547 _l
_cl}_d
/y{592 0 30 -207 562 547 _sc
322 -50 _m
296 -114 271 -157 247 -177 _c
223 -197 191 -207 151 -207 _c
79 -207 _l
79 -132 _l
132 -132 _l
156 -132 175 -126 189 -114 _c
203 -102 218 -75 235 -31 _c
251 9 _l
30 547 _l
125 547 _l
296 119 _l
467 547 _l
562 547 _l
322 -50 _l
_cl}_d
/minus{838 0 106 272 732 355 _sc
106 355 _m
732 355 _l
732 272 _l
106 272 _l
106 355 _l
_cl}_d
end readonly def

/BuildGlyph
 {exch begin
 CharStrings exch
 2 copy known not{pop /.notdef}if
 true 3 1 roll get exec
 end}_d

/BuildChar {
 1 index /Encoding get exch get
 1 index /BuildGlyph get exec
}_d

FontName currentdict end definefont pop
end
%%EndProlog
mpldict begin
27.656 120.675 translate
556.689 550.65 0 0 clipbox
gsave
-1.42109e-14 0 m
556.689 0 l
556.689 550.65 l
-1.42109e-14 550.65 l
cl
1.000 setgray
fill
grestore
gsave
51.1062 39.45 m
300.298 39.45 l
300.298 543.45 l
51.1062 543.45 l
cl
1.000 setgray
fill
grestore
1.000 setlinewidth
1 setlinejoin
2 setlinecap
[] 0 setdash
1.000 0.000 0.000 setrgbcolor
gsave
249.2 504 51.11 39.45 clipbox
18.0089 106.65 m
27.743 106.65 l
37.477 106.65 l
47.211 106.65 l
56.9451 106.65 l
66.6791 106.65 l
76.4131 106.65 l
86.1472 106.65 l
95.8812 140.241 l
105.615 180.596 l
115.349 244.992 l
125.083 256.615 l
134.817 335.8 l
144.551 410.267 l
154.285 408.565 l
164.02 396.693 l
173.754 418.884 l
183.488 362.13 l
193.222 298.8 l
202.956 286.961 l
212.69 241.976 l
222.424 195.578 l
232.158 182.427 l
241.892 111.466 l
251.626 125.861 l
261.36 106.65 l
271.094 106.65 l
280.828 106.65 l
290.562 106.65 l
300.296 106.65 l
310.03 106.65 l
319.764 106.65 l
stroke
grestore
0 setlinecap
[3 5 1 5] 0 setdash
0.000 0.500 0.000 setrgbcolor
gsave
249.2 504 51.11 39.45 clipbox
557.689 115.228 m
555.223 105.487 l
552.707 115.032 l
550.192 125.469 l
547.677 115.086 l
545.165 114.718 l
542.65 115.178 l
540.135 120.548 l
537.624 121.218 l
535.108 120.254 l
532.593 131.562 l
530.082 114.802 l
527.566 92.8193 l
525.051 92.7968 l
522.54 103.709 l
520.024 103.816 l
517.509 89.299 l
514.998 102.981 l
512.482 120.025 l
509.967 111.036 l
507.456 107.465 l
504.941 114.217 l
502.425 129.174 l
499.914 131.542 l
497.399 114.467 l
494.883 109.707 l
492.372 112.091 l
489.857 116.042 l
487.345 129.497 l
484.83 131.897 l
482.315 127.191 l
479.803 129.045 l
477.288 113.075 l
474.773 105.918 l
472.261 118.816 l
469.746 98.1785 l
467.235 83.0711 l
464.719 116.323 l
462.204 126.786 l
459.693 105.906 l
457.178 102.192 l
454.666 90.3324 l
452.151 75.0619 l
449.636 94.1577 l
447.124 114.425 l
444.609 110.473 l
442.098 111.485 l
439.582 120.875 l
437.071 115.905 l
434.556 95.2462 l
432.04 88.4902 l
429.529 98.7114 l
427.014 99.6873 l
424.502 110.103 l
421.987 129.084 l
419.476 123.067 l
416.96 108.855 l
414.449 100.654 l
411.934 93.4389 l
409.418 89.4876 l
406.907 96.5102 l
404.392 109.59 l
401.88 103.231 l
399.365 102.252 l
396.854 115.371 l
394.339 109.393 l
391.827 100.644 l
389.312 102.933 l
386.8 95.2926 l
384.285 83.1687 l
381.774 95.0355 l
379.259 117.071 l
376.747 120.708 l
374.232 118.388 l
371.721 129.272 l
369.205 133.392 l
366.694 119.179 l
364.179 111.683 l
361.667 122.228 l
359.152 139.772 l
356.641 132.582 l
354.125 107.981 l
351.614 114.379 l
349.099 125.851 l
346.587 104.358 l
344.072 97.4931 l
341.561 109.914 l
339.045 110.342 l
336.534 105.266 l
334.019 106.359 l
331.507 123.43 l
328.996 112.187 l
326.481 87.2538 l
323.969 96.3631 l
321.454 106.421 l
318.943 101.948 l
316.427 83.5023 l
313.916 69.6834 l
311.401 92.9829 l
308.889 122.783 l
306.378 131.231 l
303.863 133.433 l
301.351 113.96 l
298.836 83.5085 l
296.325 72.0538 l
293.809 92.8631 l
291.298 122.034 l
288.787 115.444 l
286.271 97.1738 l
283.76 95.3916 l
281.245 111.353 l
278.733 123.252 l
276.222 116.581 l
273.707 116.883 l
271.195 127.969 l
268.68 127.319 l
266.169 119.108 l
263.657 128.687 l
261.142 140.387 l
258.63 127.284 l
256.119 123.772 l
253.604 143.934 l
251.092 150.309 l
248.581 142.44 l
246.066 131.481 l
243.554 126.415 l
241.039 146.479 l
238.528 172.554 l
236.016 181.525 l
233.501 188.185 l
230.99 196.191 l
228.478 191.005 l
225.963 186.917 l
223.452 206.378 l
220.94 234.445 l
218.425 254.443 l
215.914 259.455 l
213.402 270.397 l
210.887 285.74 l
208.376 276.657 l
205.864 273.855 l
203.349 285.195 l
200.838 306.611 l
198.326 336.7 l
195.811 354.4 l
193.3 361.106 l
190.788 363.138 l
188.277 373.482 l
185.762 390.434 l
183.25 392.287 l
180.739 397.009 l
178.223 426.885 l
175.712 455.152 l
173.201 469.31 l
170.689 464.708 l
168.174 437.473 l
165.663 428.447 l
163.151 438.251 l
160.636 437.093 l
158.125 440.119 l
155.613 440.775 l
153.102 433.297 l
150.587 418.526 l
148.075 397.575 l
145.564 408.476 l
143.052 412.904 l
140.537 370.185 l
138.026 351.078 l
135.514 369.003 l
133.003 358.318 l
130.488 330.243 l
127.976 322.049 l
125.465 308.107 l
122.954 285.098 l
117.927 263.031 l
115.416 232.893 l
112.904 201.112 l
110.393 199.936 l
107.878 205.826 l
105.366 192.154 l
102.855 188.684 l
100.343 189.985 l
97.832 163.59 l
95.3167 133.413 l
92.8054 121.015 l
90.294 124.657 l
87.7826 132.576 l
85.2712 130.719 l
82.7598 134.573 l
80.2446 144.089 l
77.7332 139.638 l
75.2218 127.186 l
72.7104 124.193 l
70.199 133.41 l
67.6877 141.025 l
65.1724 137.03 l
62.661 119.007 l
60.1496 106.957 l
57.6382 121.81 l
55.1269 120.539 l
52.6155 105.938 l
50.1002 110.92 l
47.5888 111.669 l
45.0774 105.199 l
42.5661 99.5629 l
40.0547 108.305 l
37.5433 145.112 l
35.0319 151.29 l
32.5166 104.403 l
30.0053 73.0946 l
27.4939 77.4413 l
24.9825 108.273 l
22.4711 129.194 l
19.9597 130.614 l
17.4484 129.944 l
14.937 121.236 l
12.4256 123.194 l
9.91032 107.062 l
7.39894 92.2525 l
4.88756 110.93 l
2.37618 110.781 l
-0.135203 100.078 l
-1 101.893 l
-1 101.893 l
stroke
grestore
[6 6] 0 setdash
0.000 0.000 1.000 setrgbcolor
gsave
249.2 504 51.11 39.45 clipbox
557.689 101.465 m
551.359 96.3404 l
531.248 92.8543 l
511.137 101 l
491.027 122.406 l
470.918 128.067 l
450.809 101.036 l
430.701 88.7915 l
410.594 99.155 l
390.487 115.216 l
370.382 114.662 l
350.276 98.0557 l
330.172 109.8 l
310.068 120.55 l
289.965 109.533 l
269.863 111.169 l
249.761 151.721 l
229.66 231.312 l
209.559 312.909 l
189.46 381.791 l
169.361 434.673 l
149.263 425.487 l
129.165 332.293 l
109.068 223.674 l
88.9718 153.345 l
68.8763 115.764 l
48.7815 116.387 l
28.6874 124.028 l
8.59395 107.557 l
-1 106.355 l
-1 106.355 l
stroke
grestore
0.500 setlinewidth
[] 0 setdash
0.000 setgray
gsave
/o {
gsave
newpath
translate
0.5 setlinewidth
1 setlinejoin
0 setlinecap
0 0 m
0 4 l
gsave
0.000 setgray
fill
grestore
stroke
grestore
} bind def
86.1488 39.45 o
grestore
gsave
/o {
gsave
newpath
translate
0.5 setlinewidth
1 setlinejoin
0 setlinecap
0 0 m
0 -4 l
gsave
0.000 setgray
fill
grestore
stroke
grestore
} bind def
86.1488 543.45 o
grestore
/BitstreamVeraSans-Roman findfont
12.000 scalefont
setfont
gsave
75.523777 26.325000 translate
0.000000 rotate
0.000000 0.000000 m /two glyphshow
7.634766 0.000000 m /four glyphshow
15.269531 0.000000 m /zero glyphshow
grestore
gsave
/o {
gsave
newpath
translate
0.5 setlinewidth
1 setlinejoin
0 setlinecap
0 0 m
0 4 l
gsave
0.000 setgray
fill
grestore
stroke
grestore
} bind def
125.085 39.45 o
grestore
gsave
/o {
gsave
newpath
translate
0.5 setlinewidth
1 setlinejoin
0 setlinecap
0 0 m
0 -4 l
gsave
0.000 setgray
fill
grestore
stroke
grestore
} bind def
125.085 543.45 o
grestore
gsave
114.459918 26.325000 translate
0.000000 rotate
0.000000 0.000000 m /two glyphshow
7.634766 0.000000 m /five glyphshow
15.269531 0.000000 m /zero glyphshow
grestore
gsave
/o {
gsave
newpath
translate
0.5 setlinewidth
1 setlinejoin
0 setlinecap
0 0 m
0 4 l
gsave
0.000 setgray
fill
grestore
stroke
grestore
} bind def
164.021 39.45 o
grestore
gsave
/o {
gsave
newpath
translate
0.5 setlinewidth
1 setlinejoin
0 setlinecap
0 0 m
0 -4 l
gsave
0.000 setgray
fill
grestore
stroke
grestore
} bind def
164.021 543.45 o
grestore
gsave
153.396060 26.325000 translate
0.000000 rotate
0.000000 0.000000 m /two glyphshow
7.634766 0.000000 m /six glyphshow
15.269531 0.000000 m /zero glyphshow
grestore
gsave
/o {
gsave
newpath
translate
0.5 setlinewidth
1 setlinejoin
0 setlinecap
0 0 m
0 4 l
gsave
0.000 setgray
fill
grestore
stroke
grestore
} bind def
202.957 39.45 o
grestore
gsave
/o {
gsave
newpath
translate
0.5 setlinewidth
1 setlinejoin
0 setlinecap
0 0 m
0 -4 l
gsave
0.000 setgray
fill
grestore
stroke
grestore
} bind def
202.957 543.45 o
grestore
gsave
192.332201 26.325000 translate
0.000000 rotate
0.000000 0.000000 m /two glyphshow
7.634766 0.000000 m /seven glyphshow
15.269531 0.000000 m /zero glyphshow
grestore
gsave
/o {
gsave
newpath
translate
0.5 setlinewidth
1 setlinejoin
0 setlinecap
0 0 m
0 4 l
gsave
0.000 setgray
fill
grestore
stroke
grestore
} bind def
241.893 39.45 o
grestore
gsave
/o {
gsave
newpath
translate
0.5 setlinewidth
1 setlinejoin
0 setlinecap
0 0 m
0 -4 l
gsave
0.000 setgray
fill
grestore
stroke
grestore
} bind def
241.893 543.45 o
grestore
gsave
231.268342 26.325000 translate
0.000000 rotate
0.000000 0.000000 m /two glyphshow
7.634766 0.000000 m /eight glyphshow
15.269531 0.000000 m /zero glyphshow
grestore
gsave
/o {
gsave
newpath
translate
0.5 setlinewidth
1 setlinejoin
0 setlinecap
0 0 m
0 4 l
gsave
0.000 setgray
fill
grestore
stroke
grestore
} bind def
280.829 39.45 o
grestore
gsave
/o {
gsave
newpath
translate
0.5 setlinewidth
1 setlinejoin
0 setlinecap
0 0 m
0 -4 l
gsave
0.000 setgray
fill
grestore
stroke
grestore
} bind def
280.829 543.45 o
grestore
gsave
270.204484 26.325000 translate
0.000000 rotate
0.000000 0.000000 m /two glyphshow
7.634766 0.000000 m /nine glyphshow
15.269531 0.000000 m /zero glyphshow
grestore
gsave
118.358152 9.700000 translate
0.000000 rotate
0.000000 0.000000 m /L glyphshow
6.685547 0.000000 m /S glyphshow
14.302734 0.000000 m /R glyphshow
22.640625 0.000000 m /space glyphshow
26.455078 0.000000 m /V glyphshow
33.789062 0.000000 m /e glyphshow
41.171875 0.000000 m /l glyphshow
44.505859 0.000000 m /o glyphshow
51.847656 0.000000 m /c glyphshow
58.445312 0.000000 m /i glyphshow
61.779297 0.000000 m /t glyphshow
66.484375 0.000000 m /y glyphshow
73.585938 0.000000 m /space glyphshow
77.400391 0.000000 m /parenleft glyphshow
82.082031 0.000000 m /k glyphshow
89.031250 0.000000 m /m glyphshow
100.720703 0.000000 m /slash glyphshow
104.763672 0.000000 m /s glyphshow
111.015625 0.000000 m /parenright glyphshow
grestore
gsave
/o {
gsave
newpath
translate
0.5 setlinewidth
1 setlinejoin
0 setlinecap
0 0 m
4 0 l
gsave
0.000 setgray
fill
grestore
stroke
grestore
} bind def
51.1062 39.45 o
grestore
gsave
/o {
gsave
newpath
translate
0.5 setlinewidth
1 setlinejoin
0 setlinecap
0 0 m
-4 0 l
gsave
0.000 setgray
fill
grestore
stroke
grestore
} bind def
300.298 39.45 o
grestore
gsave
23.825000 36.137500 translate
0.000000 rotate
0.000000 0.000000 m /minus glyphshow
10.054688 0.000000 m /one glyphshow
17.689453 0.000000 m /zero glyphshow
grestore
gsave
/o {
gsave
newpath
translate
0.5 setlinewidth
1 setlinejoin
0 setlinecap
0 0 m
4 0 l
gsave
0.000 setgray
fill
grestore
stroke
grestore
} bind def
51.1062 106.65 o
grestore
gsave
/o {
gsave
newpath
translate
0.5 setlinewidth
1 setlinejoin
0 setlinecap
0 0 m
-4 0 l
gsave
0.000 setgray
fill
grestore
stroke
grestore
} bind def
300.298 106.65 o
grestore
gsave
41.059375 103.337500 translate
0.000000 rotate
0.000000 0.000000 m /zero glyphshow
grestore
gsave
/o {
gsave
newpath
translate
0.5 setlinewidth
1 setlinejoin
0 setlinecap
0 0 m
4 0 l
gsave
0.000 setgray
fill
grestore
stroke
grestore
} bind def
51.1062 173.85 o
grestore
gsave
/o {
gsave
newpath
translate
0.5 setlinewidth
1 setlinejoin
0 setlinecap
0 0 m
-4 0 l
gsave
0.000 setgray
fill
grestore
stroke
grestore
} bind def
300.298 173.85 o
grestore
gsave
33.934375 170.537500 translate
0.000000 rotate
0.000000 0.000000 m /one glyphshow
7.634766 0.000000 m /zero glyphshow
grestore
gsave
/o {
gsave
newpath
translate
0.5 setlinewidth
1 setlinejoin
0 setlinecap
0 0 m
4 0 l
gsave
0.000 setgray
fill
grestore
stroke
grestore
} bind def
51.1062 241.05 o
grestore
gsave
/o {
gsave
newpath
translate
0.5 setlinewidth
1 setlinejoin
0 setlinecap
0 0 m
-4 0 l
gsave
0.000 setgray
fill
grestore
stroke
grestore
} bind def
300.298 241.05 o
grestore
gsave
33.496875 237.737500 translate
0.000000 rotate
0.000000 0.000000 m /two glyphshow
7.634766 0.000000 m /zero glyphshow
grestore
gsave
/o {
gsave
newpath
translate
0.5 setlinewidth
1 setlinejoin
0 setlinecap
0 0 m
4 0 l
gsave
0.000 setgray
fill
grestore
stroke
grestore
} bind def
51.1062 308.25 o
grestore
gsave
/o {
gsave
newpath
translate
0.5 setlinewidth
1 setlinejoin
0 setlinecap
0 0 m
-4 0 l
gsave
0.000 setgray
fill
grestore
stroke
grestore
} bind def
300.298 308.25 o
grestore
gsave
33.543750 304.937500 translate
0.000000 rotate
0.000000 0.000000 m /three glyphshow
7.634766 0.000000 m /zero glyphshow
grestore
gsave
/o {
gsave
newpath
translate
0.5 setlinewidth
1 setlinejoin
0 setlinecap
0 0 m
4 0 l
gsave
0.000 setgray
fill
grestore
stroke
grestore
} bind def
51.1062 375.45 o
grestore
gsave
/o {
gsave
newpath
translate
0.5 setlinewidth
1 setlinejoin
0 setlinecap
0 0 m
-4 0 l
gsave
0.000 setgray
fill
grestore
stroke
grestore
} bind def
300.298 375.45 o
grestore
gsave
33.215625 372.137500 translate
0.000000 rotate
0.000000 0.000000 m /four glyphshow
7.634766 0.000000 m /zero glyphshow
grestore
gsave
/o {
gsave
newpath
translate
0.5 setlinewidth
1 setlinejoin
0 setlinecap
0 0 m
4 0 l
gsave
0.000 setgray
fill
grestore
stroke
grestore
} bind def
51.1062 442.65 o
grestore
gsave
/o {
gsave
newpath
translate
0.5 setlinewidth
1 setlinejoin
0 setlinecap
0 0 m
-4 0 l
gsave
0.000 setgray
fill
grestore
stroke
grestore
} bind def
300.298 442.65 o
grestore
gsave
33.543750 439.337500 translate
0.000000 rotate
0.000000 0.000000 m /five glyphshow
7.634766 0.000000 m /zero glyphshow
grestore
gsave
/o {
gsave
newpath
translate
0.5 setlinewidth
1 setlinejoin
0 setlinecap
0 0 m
4 0 l
gsave
0.000 setgray
fill
grestore
stroke
grestore
} bind def
51.1062 509.85 o
grestore
gsave
/o {
gsave
newpath
translate
0.5 setlinewidth
1 setlinejoin
0 setlinecap
0 0 m
-4 0 l
gsave
0.000 setgray
fill
grestore
stroke
grestore
} bind def
300.298 509.85 o
grestore
gsave
33.465625 506.537500 translate
0.000000 rotate
0.000000 0.000000 m /six glyphshow
7.634766 0.000000 m /zero glyphshow
grestore
gsave
16.325000 237.004688 translate
90.000000 rotate
0.000000 0.000000 m /F glyphshow
6.902344 0.000000 m /l glyphshow
10.236328 0.000000 m /u glyphshow
17.841797 0.000000 m /x glyphshow
24.943359 0.000000 m /space glyphshow
28.757812 0.000000 m /D glyphshow
37.998047 0.000000 m /e glyphshow
45.380859 0.000000 m /n glyphshow
52.986328 0.000000 m /s glyphshow
59.238281 0.000000 m /i glyphshow
62.572266 0.000000 m /t glyphshow
67.277344 0.000000 m /y glyphshow
74.378906 0.000000 m /space glyphshow
78.193359 0.000000 m /parenleft glyphshow
82.875000 0.000000 m /m glyphshow
94.564453 0.000000 m /J glyphshow
98.103516 0.000000 m /y glyphshow
105.205078 0.000000 m /parenright glyphshow
grestore
1.000 setlinewidth
gsave
51.1062 543.45 m
300.298 543.45 l
stroke
grestore
gsave
300.298 39.45 m
300.298 543.45 l
stroke
grestore
gsave
51.1062 39.45 m
300.298 39.45 l
stroke
grestore
gsave
51.1062 39.45 m
51.1062 543.45 l
stroke
grestore
gsave
63.565815 64.650000 translate
0.000000 rotate
0.000000 0.000000 m /parenleft glyphshow
4.681641 0.000000 m /a glyphshow
12.035156 0.000000 m /parenright glyphshow
grestore
gsave
55.6062 496.594 m
188.741 496.594 l
188.741 538.95 l
55.6062 538.95 l
55.6062 496.594 l
cl
gsave
1.000 setgray
fill
grestore
stroke
grestore
2 setlinecap
1.000 0.000 0.000 setrgbcolor
gsave
61.9062 531.656 m
74.5062 531.656 l
stroke
grestore
0.000 setgray
/BitstreamVeraSans-Roman findfont
9.000 scalefont
setfont
gsave
84.406250 528.506250 translate
0.000000 rotate
0.000000 0.000000 m /V glyphshow
6.156738 0.000000 m /L glyphshow
11.420898 0.000000 m /A glyphshow
17.577637 0.000000 m /plus glyphshow
25.118652 0.000000 m /G glyphshow
32.092773 0.000000 m /M glyphshow
39.857910 0.000000 m /R glyphshow
45.486328 0.000000 m /T glyphshow
50.983887 0.000000 m /comma glyphshow
53.844727 0.000000 m /space glyphshow
56.705566 0.000000 m /three glyphshow
62.431641 0.000000 m /two glyphshow
68.157715 0.000000 m /quotesingle glyphshow
70.631836 0.000000 m /quotesingle glyphshow
73.105957 0.000000 m /space glyphshow
75.966797 0.000000 m /b glyphshow
81.679688 0.000000 m /e glyphshow
87.216797 0.000000 m /a glyphshow
92.731934 0.000000 m /m glyphshow
grestore
0 setlinecap
[3 5 1 5] 0 setdash
0.000 0.500 0.000 setrgbcolor
gsave
61.9062 518.438 m
74.5062 518.438 l
stroke
grestore
0.000 setgray
gsave
84.406250 515.287500 translate
0.000000 rotate
0.000000 0.000000 m /L glyphshow
5.014160 0.000000 m /B glyphshow
10.813477 0.000000 m /W glyphshow
grestore
[6 6] 0 setdash
0.000 0.000 1.000 setrgbcolor
gsave
61.9062 505.219 m
74.5062 505.219 l
stroke
grestore
0.000 setgray
gsave
84.406250 502.068750 translate
0.000000 rotate
0.000000 0.000000 m /A glyphshow
6.156738 0.000000 m /L glyphshow
11.170898 0.000000 m /F glyphshow
15.472656 0.000000 m /A glyphshow
21.629395 0.000000 m /L glyphshow
26.643555 0.000000 m /F glyphshow
30.945312 0.000000 m /A glyphshow
grestore
gsave
300.298 39.45 m
549.489 39.45 l
549.489 543.45 l
300.298 543.45 l
cl
1.000 setgray
fill
grestore
0.000 0.000 1.000 setrgbcolor
gsave
249.2 504 300.3 39.45 clipbox
267.2 106.65 m
276.934 106.65 l
286.668 106.65 l
296.402 106.65 l
306.136 106.65 l
315.87 106.65 l
325.604 106.65 l
335.338 106.65 l
345.073 106.65 l
354.807 106.65 l
364.541 106.65 l
374.275 154.174 l
384.009 206.073 l
393.743 263.512 l
403.477 246.479 l
413.211 256.383 l
422.945 247.301 l
432.679 168.614 l
442.413 145.771 l
452.147 148.441 l
461.881 118.927 l
471.615 106.65 l
481.349 106.65 l
491.083 106.65 l
500.817 106.65 l
510.551 106.65 l
520.285 106.65 l
530.019 106.65 l
539.753 106.65 l
549.487 106.65 l
557.689 106.65 l
stroke
grestore
[3 5 1 5] 0 setdash
0.000 0.500 0.000 setrgbcolor
gsave
249.2 504 300.3 39.45 clipbox
267.2 106.65 m
276.934 106.65 l
286.668 106.65 l
296.402 106.65 l
306.136 106.65 l
315.87 106.65 l
325.604 106.65 l
335.338 106.65 l
345.073 114.072 l
354.807 143.489 l
364.541 188.001 l
374.275 214.032 l
384.009 255.675 l
393.743 288.093 l
403.477 325.042 l
413.211 315.441 l
422.945 318.848 l
432.679 271.135 l
442.413 223.525 l
452.147 199.024 l
461.881 205.838 l
471.615 147.826 l
481.349 137.5 l
491.083 106.65 l
500.817 106.65 l
510.551 106.65 l
520.285 106.65 l
530.019 106.65 l
539.753 106.65 l
549.487 106.65 l
557.689 106.65 l
stroke
grestore
0.000 setgray
gsave
249.2 504 300.3 39.45 clipbox
267.2 106.65 m
276.934 106.65 l
286.668 106.65 l
296.402 106.65 l
306.136 106.65 l
315.87 106.65 l
325.604 106.65 l
335.338 106.65 l
345.073 131.724 l
354.807 167.955 l
364.541 231.109 l
374.275 242.965 l
384.009 304.668 l
393.743 376.153 l
403.477 395.892 l
413.211 365.413 l
422.945 379.395 l
432.679 347.509 l
442.413 271.652 l
452.147 263.313 l
461.881 229.246 l
471.615 177.266 l
481.349 171.55 l
491.083 114.195 l
500.817 131.248 l
510.551 106.65 l
520.285 106.65 l
530.019 106.65 l
539.753 106.65 l
549.487 106.65 l
557.689 106.65 l
stroke
grestore
0.500 setlinewidth
[] 0 setdash
gsave
249.2 504 300.3 39.45 clipbox
/o {
gsave
newpath
translate
0.5 setlinewidth
1 setlinejoin
0 setlinecap
0 -1.5 m
0.397805 -1.5 0.77937 -1.34195 1.06066 -1.06066 c
1.34195 -0.77937 1.5 -0.397805 1.5 0 c
1.5 0.397805 1.34195 0.77937 1.06066 1.06066 c
0.77937 1.34195 0.397805 1.5 0 1.5 c
-0.397805 1.5 -0.77937 1.34195 -1.06066 1.06066 c
-1.34195 0.77937 -1.5 0.397805 -1.5 0 c
-1.5 -0.397805 -1.34195 -0.77937 -1.06066 -1.06066 c
-0.77937 -1.34195 -0.397805 -1.5 0 -1.5 c
cl
gsave
0.000 setgray
fill
grestore
stroke
grestore
} bind def
267.2 106.65 o
276.934 106.65 o
286.668 106.65 o
296.402 106.65 o
306.136 106.65 o
315.87 106.65 o
325.604 106.65 o
335.338 106.65 o
345.073 131.724 o
354.807 167.955 o
364.541 231.109 o
374.275 242.965 o
384.009 304.668 o
393.743 376.153 o
403.477 395.892 o
413.211 365.413 o
422.945 379.395 o
432.679 347.509 o
442.413 271.652 o
452.147 263.313 o
461.881 229.246 o
471.615 177.266 o
481.349 171.55 o
491.083 114.195 o
500.817 131.248 o
510.551 106.65 o
520.285 106.65 o
530.019 106.65 o
539.753 106.65 o
549.487 106.65 o
559.221 106.65 o
568.955 106.65 o
grestore
1.000 setlinewidth
2 setlinecap
1.000 0.000 0.000 setrgbcolor
gsave
249.2 504 300.3 39.45 clipbox
267.2 106.65 m
276.934 106.65 l
286.668 106.65 l
296.402 106.65 l
306.136 106.65 l
315.87 106.65 l
325.604 106.65 l
335.338 106.65 l
345.073 140.241 l
354.807 180.596 l
364.541 244.992 l
374.275 256.615 l
384.009 335.8 l
393.743 410.267 l
403.477 408.565 l
413.211 396.693 l
422.945 418.884 l
432.679 362.13 l
442.413 298.8 l
452.147 286.961 l
461.881 241.976 l
471.615 195.578 l
481.349 182.427 l
491.083 111.466 l
500.817 125.861 l
510.551 106.65 l
520.285 106.65 l
530.019 106.65 l
539.753 106.65 l
549.487 106.65 l
557.689 106.65 l
stroke
grestore
0.500 setlinewidth
0 setlinecap
0.000 setgray
gsave
/o {
gsave
newpath
translate
0.5 setlinewidth
1 setlinejoin
0 setlinecap
0 0 m
0 4 l
gsave
0.000 setgray
fill
grestore
stroke
grestore
} bind def
335.34 39.45 o
grestore
gsave
/o {
gsave
newpath
translate
0.5 setlinewidth
1 setlinejoin
0 setlinecap
0 0 m
0 -4 l
gsave
0.000 setgray
fill
grestore
stroke
grestore
} bind def
335.34 543.45 o
grestore
/BitstreamVeraSans-Roman findfont
12.000 scalefont
setfont
gsave
324.715081 26.325000 translate
0.000000 rotate
0.000000 0.000000 m /two glyphshow
7.634766 0.000000 m /four glyphshow
15.269531 0.000000 m /zero glyphshow
grestore
gsave
/o {
gsave
newpath
translate
0.5 setlinewidth
1 setlinejoin
0 setlinecap
0 0 m
0 4 l
gsave
0.000 setgray
fill
grestore
stroke
grestore
} bind def
374.276 39.45 o
grestore
gsave
/o {
gsave
newpath
translate
0.5 setlinewidth
1 setlinejoin
0 setlinecap
0 0 m
0 -4 l
gsave
0.000 setgray
fill
grestore
stroke
grestore
} bind def
374.276 543.45 o
grestore
gsave
363.651223 26.325000 translate
0.000000 rotate
0.000000 0.000000 m /two glyphshow
7.634766 0.000000 m /five glyphshow
15.269531 0.000000 m /zero glyphshow
grestore
gsave
/o {
gsave
newpath
translate
0.5 setlinewidth
1 setlinejoin
0 setlinecap
0 0 m
0 4 l
gsave
0.000 setgray
fill
grestore
stroke
grestore
} bind def
413.212 39.45 o
grestore
gsave
/o {
gsave
newpath
translate
0.5 setlinewidth
1 setlinejoin
0 setlinecap
0 0 m
0 -4 l
gsave
0.000 setgray
fill
grestore
stroke
grestore
} bind def
413.212 543.45 o
grestore
gsave
402.587364 26.325000 translate
0.000000 rotate
0.000000 0.000000 m /two glyphshow
7.634766 0.000000 m /six glyphshow
15.269531 0.000000 m /zero glyphshow
grestore
gsave
/o {
gsave
newpath
translate
0.5 setlinewidth
1 setlinejoin
0 setlinecap
0 0 m
0 4 l
gsave
0.000 setgray
fill
grestore
stroke
grestore
} bind def
452.149 39.45 o
grestore
gsave
/o {
gsave
newpath
translate
0.5 setlinewidth
1 setlinejoin
0 setlinecap
0 0 m
0 -4 l
gsave
0.000 setgray
fill
grestore
stroke
grestore
} bind def
452.149 543.45 o
grestore
gsave
441.523505 26.325000 translate
0.000000 rotate
0.000000 0.000000 m /two glyphshow
7.634766 0.000000 m /seven glyphshow
15.269531 0.000000 m /zero glyphshow
grestore
gsave
/o {
gsave
newpath
translate
0.5 setlinewidth
1 setlinejoin
0 setlinecap
0 0 m
0 4 l
gsave
0.000 setgray
fill
grestore
stroke
grestore
} bind def
491.085 39.45 o
grestore
gsave
/o {
gsave
newpath
translate
0.5 setlinewidth
1 setlinejoin
0 setlinecap
0 0 m
0 -4 l
gsave
0.000 setgray
fill
grestore
stroke
grestore
} bind def
491.085 543.45 o
grestore
gsave
480.459647 26.325000 translate
0.000000 rotate
0.000000 0.000000 m /two glyphshow
7.634766 0.000000 m /eight glyphshow
15.269531 0.000000 m /zero glyphshow
grestore
gsave
/o {
gsave
newpath
translate
0.5 setlinewidth
1 setlinejoin
0 setlinecap
0 0 m
0 4 l
gsave
0.000 setgray
fill
grestore
stroke
grestore
} bind def
530.021 39.45 o
grestore
gsave
/o {
gsave
newpath
translate
0.5 setlinewidth
1 setlinejoin
0 setlinecap
0 0 m
0 -4 l
gsave
0.000 setgray
fill
grestore
stroke
grestore
} bind def
530.021 543.45 o
grestore
gsave
519.395788 26.325000 translate
0.000000 rotate
0.000000 0.000000 m /two glyphshow
7.634766 0.000000 m /nine glyphshow
15.269531 0.000000 m /zero glyphshow
grestore
gsave
367.549456 9.700000 translate
0.000000 rotate
0.000000 0.000000 m /L glyphshow
6.685547 0.000000 m /S glyphshow
14.302734 0.000000 m /R glyphshow
22.640625 0.000000 m /space glyphshow
26.455078 0.000000 m /V glyphshow
33.789062 0.000000 m /e glyphshow
41.171875 0.000000 m /l glyphshow
44.505859 0.000000 m /o glyphshow
51.847656 0.000000 m /c glyphshow
58.445312 0.000000 m /i glyphshow
61.779297 0.000000 m /t glyphshow
66.484375 0.000000 m /y glyphshow
73.585938 0.000000 m /space glyphshow
77.400391 0.000000 m /parenleft glyphshow
82.082031 0.000000 m /k glyphshow
89.031250 0.000000 m /m glyphshow
100.720703 0.000000 m /slash glyphshow
104.763672 0.000000 m /s glyphshow
111.015625 0.000000 m /parenright glyphshow
grestore
gsave
/o {
gsave
newpath
translate
0.5 setlinewidth
1 setlinejoin
0 setlinecap
0 0 m
4 0 l
gsave
0.000 setgray
fill
grestore
stroke
grestore
} bind def
300.298 39.45 o
grestore
gsave
/o {
gsave
newpath
translate
0.5 setlinewidth
1 setlinejoin
0 setlinecap
0 0 m
-4 0 l
gsave
0.000 setgray
fill
grestore
stroke
grestore
} bind def
549.489 39.45 o
grestore
gsave
/o {
gsave
newpath
translate
0.5 setlinewidth
1 setlinejoin
0 setlinecap
0 0 m
4 0 l
gsave
0.000 setgray
fill
grestore
stroke
grestore
} bind def
300.298 106.65 o
grestore
gsave
/o {
gsave
newpath
translate
0.5 setlinewidth
1 setlinejoin
0 setlinecap
0 0 m
-4 0 l
gsave
0.000 setgray
fill
grestore
stroke
grestore
} bind def
549.489 106.65 o
grestore
gsave
/o {
gsave
newpath
translate
0.5 setlinewidth
1 setlinejoin
0 setlinecap
0 0 m
4 0 l
gsave
0.000 setgray
fill
grestore
stroke
grestore
} bind def
300.298 173.85 o
grestore
gsave
/o {
gsave
newpath
translate
0.5 setlinewidth
1 setlinejoin
0 setlinecap
0 0 m
-4 0 l
gsave
0.000 setgray
fill
grestore
stroke
grestore
} bind def
549.489 173.85 o
grestore
gsave
/o {
gsave
newpath
translate
0.5 setlinewidth
1 setlinejoin
0 setlinecap
0 0 m
4 0 l
gsave
0.000 setgray
fill
grestore
stroke
grestore
} bind def
300.298 241.05 o
grestore
gsave
/o {
gsave
newpath
translate
0.5 setlinewidth
1 setlinejoin
0 setlinecap
0 0 m
-4 0 l
gsave
0.000 setgray
fill
grestore
stroke
grestore
} bind def
549.489 241.05 o
grestore
gsave
/o {
gsave
newpath
translate
0.5 setlinewidth
1 setlinejoin
0 setlinecap
0 0 m
4 0 l
gsave
0.000 setgray
fill
grestore
stroke
grestore
} bind def
300.298 308.25 o
grestore
gsave
/o {
gsave
newpath
translate
0.5 setlinewidth
1 setlinejoin
0 setlinecap
0 0 m
-4 0 l
gsave
0.000 setgray
fill
grestore
stroke
grestore
} bind def
549.489 308.25 o
grestore
gsave
/o {
gsave
newpath
translate
0.5 setlinewidth
1 setlinejoin
0 setlinecap
0 0 m
4 0 l
gsave
0.000 setgray
fill
grestore
stroke
grestore
} bind def
300.298 375.45 o
grestore
gsave
/o {
gsave
newpath
translate
0.5 setlinewidth
1 setlinejoin
0 setlinecap
0 0 m
-4 0 l
gsave
0.000 setgray
fill
grestore
stroke
grestore
} bind def
549.489 375.45 o
grestore
gsave
/o {
gsave
newpath
translate
0.5 setlinewidth
1 setlinejoin
0 setlinecap
0 0 m
4 0 l
gsave
0.000 setgray
fill
grestore
stroke
grestore
} bind def
300.298 442.65 o
grestore
gsave
/o {
gsave
newpath
translate
0.5 setlinewidth
1 setlinejoin
0 setlinecap
0 0 m
-4 0 l
gsave
0.000 setgray
fill
grestore
stroke
grestore
} bind def
549.489 442.65 o
grestore
gsave
/o {
gsave
newpath
translate
0.5 setlinewidth
1 setlinejoin
0 setlinecap
0 0 m
4 0 l
gsave
0.000 setgray
fill
grestore
stroke
grestore
} bind def
300.298 509.85 o
grestore
gsave
/o {
gsave
newpath
translate
0.5 setlinewidth
1 setlinejoin
0 setlinecap
0 0 m
-4 0 l
gsave
0.000 setgray
fill
grestore
stroke
grestore
} bind def
549.489 509.85 o
grestore
1.000 setlinewidth
gsave
300.298 543.45 m
549.489 543.45 l
stroke
grestore
gsave
549.489 39.45 m
549.489 543.45 l
stroke
grestore
gsave
300.298 39.45 m
549.489 39.45 l
stroke
grestore
gsave
300.298 39.45 m
300.298 543.45 l
stroke
grestore
gsave
312.757119 64.650000 translate
0.000000 rotate
0.000000 0.000000 m /parenleft glyphshow
4.681641 0.000000 m /b glyphshow
12.298828 0.000000 m /parenright glyphshow
grestore
gsave
304.798 483.375 m
381.229 483.375 l
381.229 538.95 l
304.798 538.95 l
304.798 483.375 l
cl
gsave
1.000 setgray
fill
grestore
stroke
grestore
[6 6] 0 setdash
0.000 0.000 1.000 setrgbcolor
gsave
311.098 531.656 m
323.698 531.656 l
stroke
grestore
0.000 setgray
/BitstreamVeraSans-Roman findfont
9.000 scalefont
setfont
gsave
333.597554 528.506250 translate
0.000000 rotate
0.000000 0.000000 m /four glyphshow
5.726074 0.000000 m /quotesingle glyphshow
8.200195 0.000000 m /quotesingle glyphshow
10.674316 0.000000 m /space glyphshow
13.535156 0.000000 m /b glyphshow
19.248047 0.000000 m /e glyphshow
24.785156 0.000000 m /a glyphshow
30.300293 0.000000 m /m glyphshow
grestore
[3 5 1 5] 0 setdash
0.000 0.500 0.000 setrgbcolor
gsave
311.098 518.438 m
323.698 518.438 l
stroke
grestore
0.000 setgray
gsave
333.597554 515.287500 translate
0.000000 rotate
0.000000 0.000000 m /eight glyphshow
5.726074 0.000000 m /quotesingle glyphshow
8.200195 0.000000 m /quotesingle glyphshow
10.674316 0.000000 m /space glyphshow
13.535156 0.000000 m /b glyphshow
19.248047 0.000000 m /e glyphshow
24.785156 0.000000 m /a glyphshow
30.300293 0.000000 m /m glyphshow
grestore
gsave
311.098 505.219 m
323.698 505.219 l
stroke
grestore
0.500 setlinewidth
[] 0 setdash
gsave
/o {
gsave
newpath
translate
0.5 setlinewidth
1 setlinejoin
0 setlinecap
0 -1.5 m
0.397805 -1.5 0.77937 -1.34195 1.06066 -1.06066 c
1.34195 -0.77937 1.5 -0.397805 1.5 0 c
1.5 0.397805 1.34195 0.77937 1.06066 1.06066 c
0.77937 1.34195 0.397805 1.5 0 1.5 c
-0.397805 1.5 -0.77937 1.34195 -1.06066 1.06066 c
-1.34195 0.77937 -1.5 0.397805 -1.5 0 c
-1.5 -0.397805 -1.34195 -0.77937 -1.06066 -1.06066 c
-0.77937 -1.34195 -0.397805 -1.5 0 -1.5 c
cl
gsave
0.000 setgray
fill
grestore
stroke
grestore
} bind def
311.098 505.219 o
323.698 505.219 o
grestore
gsave
333.597554 502.068750 translate
0.000000 rotate
0.000000 0.000000 m /one glyphshow
5.726074 0.000000 m /six glyphshow
11.452148 0.000000 m /quotesingle glyphshow
13.926270 0.000000 m /quotesingle glyphshow
16.400391 0.000000 m /space glyphshow
19.261230 0.000000 m /b glyphshow
24.974121 0.000000 m /e glyphshow
30.511230 0.000000 m /a glyphshow
36.026367 0.000000 m /m glyphshow
grestore
1.000 setlinewidth
2 setlinecap
1.000 0.000 0.000 setrgbcolor
gsave
311.098 492 m
323.698 492 l
stroke
grestore
0.000 setgray
gsave
333.597554 488.850000 translate
0.000000 rotate
0.000000 0.000000 m /three glyphshow
5.726074 0.000000 m /two glyphshow
11.452148 0.000000 m /quotesingle glyphshow
13.926270 0.000000 m /quotesingle glyphshow
16.400391 0.000000 m /space glyphshow
19.261230 0.000000 m /b glyphshow
24.974121 0.000000 m /e glyphshow
30.511230 0.000000 m /a glyphshow
36.026367 0.000000 m /m glyphshow
grestore

end
showpage
